Playing with R - Candlegraph
…
While the above graph is a good start, it doesn’t tell us the candle names, just their IDs. This is because burn_times.csv and the burn_times data frame that was created from it do not have those names listed. But our purchases data frame does. Both frames contain the common column candle_id, which allows us to associate the candle_id with the candle name (scent_name) using an inner join.

scents <- burn_times %>%
  inner_join(purchases)

## Joining with `by = join_by(candle_id)`

scents

## # A tibble: 168 × 16
##    candle_id start_time     stop_time session_time start_temp stop_temp start_rh
##        <dbl> <chr>          <chr>            <dbl>      <dbl>     <dbl>    <dbl>
##  1         1 2022-02-20 12… 2022-02-…          3         70.5      74.1     42.8
##  2         1 2022-02-21 12… 2022-02-…          3         75.5      82       50.4
##  3         1 2022-02-22 20… 2022-02-…          3         73.1      76.8     45.1
##  4         1 2022-02-23 21… 2022-02-…          2.4       67.2      68       37.2
##  5         1 2022-02-24 20… 2022-02-…          3.3       67.8      68.5     36  
##  6         1 2022-02-28 11… 2022-02-…          2.8       66.6      75.4     36.1
##  7         1 2022-03-03 21… 2022-03-…          3.1       76.3      81.9     41  
##  8         1 2022-03-07 20… 2022-03-…          3.2       73.3      77.1     41.3
##  9         1 2022-03-11 20… 2022-03-…          3.2       68.2      74.5     39.7
## 10         1 2022-03-15 20… 2022-03-…          3.2       75.3      82.7     41.4
## # ℹ 158 more rows
## # ℹ 9 more variables: stop_rh <dbl>, start_dp <dbl>, stop_dp <dbl>,
## #   session_id <dbl>, brand_id <dbl>, brand_name <chr>, scent_name <chr>,
## #   price_usd <dbl>, weight_oz <dbl>

Now we have the ID of the candle and its associated name (listed as scent_name) in our data frame. For our purposes, we only need the candle_id, session_time, and scent_name columns, so let’s update scents to include only those three column names, using the select function.

scents <- scents %>%
  select(candle_id,session_time,scent_name)
scents

## # A tibble: 168 × 3
##    candle_id session_time scent_name
##        <dbl>        <dbl> <chr>     
##  1         1          3   Slow Burn 
##  2         1          3   Slow Burn 
##  3         1          3   Slow Burn 
##  4         1          2.4 Slow Burn 
##  5         1          3.3 Slow Burn 
##  6         1          2.8 Slow Burn 
##  7         1          3.1 Slow Burn 
##  8         1          3.2 Slow Burn 
##  9         1          3.2 Slow Burn 
## 10         1          3.2 Slow Burn 
## # ℹ 158 more rows
…
